{
    "fn_index": 39,
    "data": [
      0,
      "data:image/png;base64,iVBORw0KSuQmCC",
      null,
      0,
      0,
      0,
      4,
      "SwinIR_4x",
      "None",
      1,
      [],
      "",
      ""
    ],
    "session_hash": "nk14kab3kg"
}
